{
    "content":[
        {
            "id":221,
            "cveDelegacion": 1,
            "nrp":"4440524754",
            "razonSocial": "Telefónica Móviles España, S.A.U.",
            "mes1": 202103,
            "mes2": 202103,
            "mes3": 202103,
            "mes4": 202103,
            "mes5": 202103,
            "mes6": 202103
        },
        {
            "id":221,
            "cveDelegacion": 1,
            "nrp":"4440524754",
            "razonSocial": "Telefónica Móviles España, S.A.U.",
            "mes1": 202103,
            "mes2": 202103,
            "mes3": 202103,
            "mes4": 202103,
            "mes5": 202103,
            "mes6": 202103
        },
        {
            "id":221,
            "cveDelegacion": 1,
            "nrp":"4440524754",
            "razonSocial": "Telefónica Móviles España, S.A.U.",
            "mes1": 202103,
            "mes2": 202103,
            "mes3": 202103,
            "mes4": 202103,
            "mes5": 202103,
            "mes6": 202103
        },
        {
            "id":221,
            "cveDelegacion": 1,
            "nrp":"4440524754",
            "razonSocial": "Telefónica Móviles España, S.A.U.",
            "mes1": 202103,
            "mes2": 202103,
            "mes3": 202103,
            "mes4": 202103,
            "mes5": 202103,
            "mes6": 202103
        },
        {
            "id":221,
            "cveDelegacion": 1,
            "nrp":"4440524754",
            "razonSocial": "Telefónica Móviles España, S.A.U.",
            "mes1": 202103,
            "mes2": 202103,
            "mes3": 202103,
            "mes4": 202103,
            "mes5": 202103,
            "mes6": 202103
        }
       
    ],
    "last":false,
    "totalPages":13,
    "totalElements":128,
    "sort":{
        "sorted":false,
        "unsorted":true,
        "empty":true
    },
    "numberOfElements":10,
    "first":true,
    "size":10,
    "number":4,
    "empty":false
}